REGRESSION EXERCISE—ANSWER KEY
…
Problem 4

How well does the regression model account for median housing values in the test set?

The first ten predicted values are

Code

housing_fit %>%
  predict(test) %>%
  bind_cols(test)

# A tibble: 154 × 16
   .pred tract    crim    zn indus chas    nox    rm   age   dis   rad   tax
 * <dbl> <int>   <dbl> <dbl> <dbl> <fct> <dbl> <dbl> <dbl> <dbl> <int> <int>
 1  1.44  2011 0.00632  18    2.31 0     0.538  6.58  65.2  4.09     1   296
 2  1.48  2022 0.0273    0    7.07 0     0.469  7.18  61.1  4.97     2   242
 3  1.45  2032 0.0690    0    2.18 0     0.458  7.15  54.2  6.06     3   222
 4  1.26  2044 0.170    12.5  7.87 0     0.524  6.00  85.9  6.59     5   311
 5  1.28  2047 0.0938   12.5  7.87 0     0.524  5.89  39    5.45     5   311
 6  1.31  2053 0.627     0    8.14 0     0.538  5.83  56.5  4.50     4   307
 7  1.27  2069 1.35      0    8.14 0     0.538  6.07 100    4.18     4   307
 8  1.17  2071 1.15      0    8.14 0     0.538  5.70  95    3.79     4   307
 9  1.38  2081 0.0642    0    5.96 0     0.499  5.93  68.2  3.36     5   279
10  1.34  2082 0.0974    0    5.96 0     0.499  5.84  61.4  3.38     5   279
# ℹ 144 more rows
# ℹ 4 more variables: ptratio <dbl>, b <dbl>, lstat <dbl>, log_cmedv <dbl>
…
